{
  "project_info": {
    "project_number": "113679113311",
    "project_id": "dilo---incremental-game-6cf42",
    "storage_bucket": "dilo---incremental-game-6cf42.appspot.com"
  },
  "client": [
    {
      "client_info": {
        "mobilesdk_app_id": "1:113679113311:android:eb6001f6a5284285f8cfea",
        "android_client_info": {
          "package_name": "com.dilo.incrementalgame"
        }
      },
      "oauth_client": [
        {
          "client_id": "113679113311-7hrmrvbd71vnl5btjnt8fqk0j490n1mm.apps.googleusercontent.com",
          "client_type": 3
        }
      ],
      "api_key": [
        {
          "current_key": "AIzaSyD_6PSKalFG8zoaimqcVyNRYRl1cIo392k"
        }
      ],
      "services": {
        "appinvite_service": {
          "other_platform_oauth_client": [
            {
              "client_id": "113679113311-7hrmrvbd71vnl5btjnt8fqk0j490n1mm.apps.googleusercontent.com",
              "client_type": 3
            }
          ]
        }
      }
    }
  ],
  "configuration_version": "1"
}